decoder_3_8/simulation/qsim/decoder_3_8.msim.vcd
$comment
	File created using the following command:
		vcd file decoder_3_8.msim.vcd -direction
$end
$date
	Sat Jun 21 22:15:23 2025
$end
$version
	ModelSim Version 10.1d
$end
$timescale
	1ps
$end
$scope module decoder_3_8_vlg_vec_tst $end
$var reg 1 ! A0 $end
$var reg 1 " A1 $end
$var reg 1 # A2 $end
$var wire 1 $ Y0 $end
$var wire 1 % Y1 $end
$var wire 1 & Y2 $end
$var wire 1 ' Y3 $end
$var wire 1 ( Y4 $end
$var wire 1 ) Y5 $end
$var wire 1 * Y6 $end
$var wire 1 + Y7 $end
$var wire 1 , sampler $end
$scope module i1 $end
$var wire 1 - gnd $end
$var wire 1 . vcc $end
$var wire 1 / unknown $end
$var tri1 1 0 devclrn $end
$var tri1 1 1 devpor $end
$var tri1 1 2 devoe $end
$var wire 1 3 Y0~output_o $end
$var wire 1 4 Y1~output_o $end
$var wire 1 5 Y2~output_o $end
$var wire 1 6 Y3~output_o $end
$var wire 1 7 Y4~output_o $end
$var wire 1 8 Y5~output_o $end
$var wire 1 9 Y6~output_o $end
$var wire 1 : Y7~output_o $end
$var wire 1 ; A2~input_o $end
$var wire 1 < A1~input_o $end
$var wire 1 = A0~input_o $end
$var wire 1 > Decoder0~0_combout $end
$var wire 1 ? Decoder0~1_combout $end
$var wire 1 @ Decoder0~2_combout $end
$var wire 1 A Decoder0~3_combout $end
$var wire 1 B Decoder0~4_combout $end
$var wire 1 C Decoder0~5_combout $end
$var wire 1 D Decoder0~6_combout $end
$var wire 1 E Decoder0~7_combout $end
$upscope $end
$upscope $end
$enddefinitions $end
#0
$dumpvars
0!
0"
0#
1$
0%
0&
0'
0(
0)
0*
0+
x,
0-
1.
x/
10
11
12
13
04
05
06
07
08
09
0:
0;
0<
0=
1>
0?
0@
0A
0B
0C
0D
0E
$end
#20000
1!
1=
0,
1?
0>
14
03
1%
0$
#40000
1"
0!
1<
0=
1,
1@
0?
15
04
1&
0%
#60000
1!
1=
0,
1A
0@
16
05
1'
0&
#80000
1#
0"
0!
1;
0<
0=
1,
1B
0A
17
06
1(
0'
#100000
1!
1=
0,
1C
0B
18
07
1)
0(
#120000
1"
0!
1<
0=
1,
1D
0C
19
08
1*
0)
#140000
1!
1=
0,
1E
0D
1:
09
1+
0*
#160000
0#
0"
0!
0;
0<
0=
1,
0E
1>
0:
13
0+
1$
#180000
1!
1=
0,
1?
0>
14
03
1%
0$
#200000
1"
0!
1<
0=
1,
1@
0?
15
04
1&
0%
#220000
1!
1=
0,
1A
0@
16
05
1'
0&
#240000
1#
0"
0!
1;
0<
0=
1,
1B
0A
17
06
1(
0'
#260000
1!
1=
0,
1C
0B
18
07
1)
0(
#280000
1"
0!
1<
0=
1,
1D
0C
19
08
1*
0)
#300000
1!
1=
0,
1E
0D
1:
09
1+
0*
#320000
0#
0"
0!
0;
0<
0=
1,
0E
1>
0:
13
0+
1$
#340000
1!
1=
0,
1?
0>
14
03
1%
0$
#360000
1"
0!
1<
0=
1,
1@
0?
15
04
1&
0%
#380000
1!
1=
0,
1A
0@
16
05
1'
0&
#400000
1#
0"
0!
1;
0<
0=
1,
1B
0A
17
06
1(
0'
#420000
1!
1=
0,
1C
0B
18
07
1)
0(
#440000
1"
0!
1<
0=
1,
1D
0C
19
08
1*
0)
#460000
1!
1=
0,
1E
0D
1:
09
1+
0*
#480000
0#
0"
0!
0;
0<
0=
1,
0E
1>
0:
13
0+
1$
#500000
1!
1=
0,
1?
0>
14
03
1%
0$
#520000
1"
0!
1<
0=
1,
1@
0?
15
04
1&
0%
#540000
1!
1=
0,
1A
0@
16
05
1'
0&
#560000
1#
0"
0!
1;
0<
0=
1,
1B
0A
17
06
1(
0'
#580000
1!
1=
0,
1C
0B
18
07
1)
0(
#600000
1"
0!
1<
0=
1,
1D
0C
19
08
1*
0)
#620000
1!
1=
0,
1E
0D
1:
09
1+
0*
#640000
0#
0"
0!
0;
0<
0=
1,
0E
1>
0:
13
0+
1$
#660000
1!
1=
0,
1?
0>
14
03
1%
0$
#680000
1"
0!
1<
0=
1,
1@
0?
15
04
1&
0%
#700000
1!
1=
0,
1A
0@
16
05
1'
0&
#720000
1#
0"
0!
1;
0<
0=
1,
1B
0A
17
06
1(
0'
#740000
1!
1=
0,
1C
0B
18
07
1)
0(
#760000
1"
0!
1<
0=
1,
1D
0C
19
08
1*
0)
#780000
1!
1=
0,
1E
0D
1:
09
1+
0*
#800000
0#
0"
0!
0;
0<
0=
1,
0E
1>
0:
13
0+
1$
#820000
1!
1=
0,
1?
0>
14
03
1%
0$
#840000
1"
0!
1<
0=
1,
1@
0?
15
04
1&
0%
#860000
1!
1=
0,
1A
0@
16
05
1'
0&
#880000
1#
0"
0!
1;
0<
0=
1,
1B
0A
17
06
1(
0'
#900000
1!
1=
0,
1C
0B
18
07
1)
0(
#920000
1"
0!
1<
0=
1,
1D
0C
19
08
1*
0)
#940000
1!
1=
0,
1E
0D
1:
09
1+
0*
#960000
0#
0"
0!
0;
0<
0=
1,
0E
1>
0:
13
0+
1$
#980000
1!
1=
0,
1?
0>
14
03
1%
0$
